<?xml version="1.0" encoding="utf-8"?>
<!-- Generator: Adobe Illustrator 26.0.3, SVG Export Plug-In . SVG Version: 6.00 Build 0)  -->
<svg version="1.1" id="Layer_1" xmlns="http://www.w3.org/2000/svg" xmlns:xlink="http://www.w3.org/1999/xlink" x="0px" y="0px"
	 viewBox="0 0 288.7 72" style="enable-background:new 0 0 288.7 72;" xml:space="preserve">
<style type="text/css">
	.st0{fill-rule:evenodd;clip-rule:evenodd;fill:#FFFFFF;}
	.st1{fill:#FFFFFF;}
</style>
<g>
	<path class="st0" d="M28.1,36.1c-3.4-3.7-8.2-6.1-13.7-6.3c-5.6-0.2-10.7,2-14.4,5.7c2.9,3.4,7,5.7,11.6,6.4
		c1.5,0.1,2.3-0.5,3.5-1.2C19.2,38.3,23.6,36.8,28.1,36.1C28.1,36.1,28.1,36.1,28.1,36.1z"/>
	<path class="st0" d="M43.4,35.5c3.4,3.7,8.2,6.1,13.7,6.3c5.6,0.2,10.7-2,14.4-5.7c-2.9-3.4-7-5.7-11.6-6.4
		c-1.5-0.1-2.3,0.5-3.5,1.2C52.3,33.3,47.9,34.8,43.4,35.5C43.4,35.5,43.4,35.5,43.4,35.5z"/>
	<path class="st0" d="M41,30.1c5,0.2,10.2-1.5,14.1-5.2c4.1-3.8,6.2-9,6.1-14.2c-4.4-0.3-9,0.9-12.8,3.7c-1.1,1-1.3,2-1.6,3.4
		C45.7,22.3,43.7,26.5,41,30.1C41,30.1,41,30.1,41,30.1z"/>
	<path class="st0" d="M35.5,28.1c3.7-3.4,6.1-8.2,6.3-13.7C41.9,8.8,39.7,3.7,36,0c-3.4,2.9-5.7,7-6.4,11.6
		c-0.1,1.5,0.5,2.3,1.2,3.5C33.2,19.2,34.8,23.6,35.5,28.1C35.5,28.1,35.5,28.1,35.5,28.1z"/>
	<path class="st0" d="M30.1,30.5c0.2-5-1.5-10.2-5.2-14.1c-3.8-4.1-9-6.2-14.2-6.1c-0.3,4.4,0.9,9,3.7,12.8c1,1.1,2,1.3,3.4,1.6
		C22.2,25.8,26.4,27.8,30.1,30.5C30.1,30.5,30.1,30.5,30.1,30.5z"/>
	<path id="XMLID_9_" class="st1" d="M48.2,52.5c-18-4.2-29-5.1-39.2,8.6c0,0,5.9-24.7,31.2-18.7C55.7,46,65,52.7,76.3,46.9
		C76.3,46.9,70.5,57.6,48.2,52.5z"/>
	<g>
		<path class="st1" d="M89,67.9h-4.4V56.8h4.2c2.3,0,3.6,1.3,3.6,2.9c0,1.3-0.8,2.2-1.9,2.5c1.2,0.2,2.1,1.4,2.1,2.7
			C92.6,66.6,91.2,67.9,89,67.9z M88.6,58.3h-2.3v3.2h2.3c1.2,0,1.9-0.6,1.9-1.6C90.5,58.8,89.8,58.3,88.6,58.3z M88.7,62.9h-2.4
			v3.5h2.5c1.2,0,2-0.6,2-1.7C90.8,63.6,90,62.9,88.7,62.9z"/>
		<path class="st1" d="M98.4,68c-2.5,0-4.4-1.8-4.4-4.5s1.8-4.5,4.4-4.5c2.5,0,4.3,1.7,4.3,4.3c0,0.3,0,0.6-0.1,0.9h-6.7
			c0.1,1.5,1.2,2.3,2.5,2.3c1.1,0,1.7-0.5,2.1-1.2h2C101.9,66.8,100.5,68,98.4,68z M95.9,62.7h4.9c0-1.4-1.1-2.2-2.5-2.2
			C97.1,60.5,96.1,61.3,95.9,62.7z"/>
		<path class="st1" d="M104.4,56.1h1.8v4c0.6-0.7,1.6-1.2,2.7-1.2c2,0,3.5,1.3,3.5,3.8v5.2h-1.8V63c0-1.6-0.9-2.4-2.2-2.4
			c-1.3,0-2.2,0.8-2.2,2.4v4.9h-1.8V56.1z"/>
		<path class="st1" d="M118.3,58.9c1.5,0,2.5,0.7,3,1.4v-1.3h1.8v8.8h-1.8v-1.3c-0.6,0.8-1.6,1.5-3.1,1.5c-2.3,0-4.1-1.9-4.1-4.6
			C114.2,60.7,116,58.9,118.3,58.9z M118.7,60.5c-1.4,0-2.7,1-2.7,2.9c0,1.9,1.3,3,2.7,3c1.4,0,2.7-1.1,2.7-3
			C121.4,61.6,120.1,60.5,118.7,60.5z"/>
		<path class="st1" d="M126.5,59.1l2.5,7.2l2.5-7.2h1.9l-3.4,8.8h-2.2l-3.3-8.8H126.5z"/>
		<path class="st1" d="M134.6,56.7c0-0.7,0.5-1.2,1.2-1.2c0.6,0,1.1,0.5,1.1,1.2c0,0.7-0.5,1.2-1.1,1.2
			C135.1,57.9,134.6,57.4,134.6,56.7z M134.8,59.1h1.8v8.8h-1.8V59.1z"/>
		<path class="st1" d="M142.9,68c-2.5,0-4.4-1.8-4.4-4.5s2-4.5,4.5-4.5c2.5,0,4.5,1.8,4.5,4.5S145.4,68,142.9,68z M142.9,66.4
			c1.4,0,2.7-1,2.7-3c0-2-1.3-3-2.6-3c-1.4,0-2.6,1-2.6,3C140.3,65.5,141.5,66.4,142.9,66.4z"/>
		<path class="st1" d="M151,67.9h-1.8v-8.8h1.8v1.3c0.5-0.9,1.4-1.4,2.6-1.4v1.9h-0.5c-1.3,0-2.2,0.6-2.2,2.4V67.9z"/>
		<path class="st1" d="M158.9,58.9c1.5,0,2.5,0.7,3,1.4v-1.3h1.8v8.8H162v-1.3c-0.6,0.8-1.6,1.5-3.1,1.5c-2.3,0-4.1-1.9-4.1-4.6
			C154.8,60.7,156.6,58.9,158.9,58.9z M159.3,60.5c-1.4,0-2.7,1-2.7,2.9c0,1.9,1.3,3,2.7,3c1.4,0,2.7-1.1,2.7-3
			C162,61.6,160.7,60.5,159.3,60.5z"/>
		<path class="st1" d="M166.2,56.1h1.8v11.8h-1.8V56.1z"/>
		<path class="st1" d="M181.6,63h-5.2v4.9h-1.8V56.8h1.8v4.8h5.2v-4.8h1.8v11.1h-1.8V63z"/>
		<path class="st1" d="M189.6,68c-2.5,0-4.4-1.8-4.4-4.5s1.8-4.5,4.4-4.5c2.5,0,4.3,1.7,4.3,4.3c0,0.3,0,0.6-0.1,0.9h-6.7
			c0.1,1.5,1.2,2.3,2.5,2.3c1.1,0,1.7-0.5,2.1-1.2h2C193.1,66.8,191.7,68,189.6,68z M187.1,62.7h4.9c0-1.4-1.1-2.2-2.5-2.2
			C188.3,60.5,187.3,61.3,187.1,62.7z"/>
		<path class="st1" d="M199.2,58.9c1.5,0,2.5,0.7,3,1.4v-1.3h1.8v8.8h-1.8v-1.3c-0.6,0.8-1.6,1.5-3.1,1.5c-2.3,0-4.1-1.9-4.1-4.6
			C195,60.7,196.9,58.9,199.2,58.9z M199.6,60.5c-1.4,0-2.7,1-2.7,2.9c0,1.9,1.3,3,2.7,3c1.4,0,2.7-1.1,2.7-3
			C202.2,61.6,201,60.5,199.6,60.5z"/>
		<path class="st1" d="M206.5,56.1h1.8v11.8h-1.8V56.1z"/>
		<path class="st1" d="M211,60.6h-1v-1.5h1v-2.2h1.8v2.2h2.1v1.5h-2.1v4.9c0,0.7,0.3,0.9,1,0.9h1.1v1.5h-1.4c-1.6,0-2.5-0.7-2.5-2.4
			V60.6z"/>
		<path class="st1" d="M216.6,56.1h1.8v4c0.6-0.7,1.6-1.2,2.7-1.2c2,0,3.5,1.3,3.5,3.8v5.2h-1.8V63c0-1.6-0.9-2.4-2.2-2.4
			c-1.3,0-2.2,0.8-2.2,2.4v4.9h-1.8V56.1z"/>
		<path class="st1" d="M234.8,68c-2.2,0-3.9-1.2-3.9-3.2h1.9c0.1,0.9,0.7,1.6,2,1.6c1.3,0,2-0.7,2-1.6c0-2.7-5.9-0.9-5.9-5
			c0-1.9,1.5-3.2,3.8-3.2c2.1,0,3.6,1.1,3.8,3h-2c-0.1-0.8-0.7-1.4-1.9-1.5c-1.1,0-1.9,0.5-1.9,1.5c0,2.5,5.9,0.9,5.9,5
			C238.6,66.4,237.3,68,234.8,68z"/>
		<path class="st1" d="M246.8,59.1h1.9L243.3,72h-1.9l1.8-4.3l-3.5-8.7h2l2.5,6.7L246.8,59.1z"/>
		<path class="st1" d="M253.3,68c-2.1,0-3.6-1.2-3.7-2.8h1.9c0.1,0.7,0.8,1.3,1.8,1.3c1.1,0,1.6-0.4,1.6-1.1c0-1.7-5.1-0.7-5.1-4
			c0-1.4,1.3-2.5,3.4-2.5c2,0,3.3,1.1,3.4,2.8h-1.8c-0.1-0.8-0.7-1.3-1.6-1.3c-1,0-1.5,0.4-1.5,1c0,1.8,5,0.8,5.1,4
			C256.6,66.9,255.3,68,253.3,68z"/>
		<path class="st1" d="M258.9,60.6h-1v-1.5h1v-2.2h1.8v2.2h2.1v1.5h-2.1v4.9c0,0.7,0.3,0.9,1,0.9h1.1v1.5h-1.4
			c-1.6,0-2.5-0.7-2.5-2.4V60.6z"/>
		<path class="st1" d="M268.3,68c-2.5,0-4.4-1.8-4.4-4.5s1.8-4.5,4.4-4.5c2.5,0,4.3,1.7,4.3,4.3c0,0.3,0,0.6-0.1,0.9h-6.7
			c0.1,1.5,1.2,2.3,2.5,2.3c1.1,0,1.7-0.5,2.1-1.2h2C271.9,66.8,270.5,68,268.3,68z M265.8,62.7h4.9c0-1.4-1.1-2.2-2.5-2.2
			C267,60.5,266,61.3,265.8,62.7z"/>
		<path class="st1" d="M286.9,63c0-1.6-0.9-2.4-2.2-2.4c-1.3,0-2.2,0.8-2.2,2.4v4.9h-1.8V63c0-1.6-0.9-2.4-2.2-2.4
			c-1.3,0-2.2,0.8-2.2,2.4v4.9h-1.8v-8.8h1.8v1c0.6-0.7,1.5-1.1,2.6-1.1c1.4,0,2.6,0.6,3.2,1.7c0.5-1.1,1.8-1.7,3.1-1.7
			c2.1,0,3.6,1.3,3.6,3.8v5.2h-1.8V63z"/>
	</g>
	<g>
		<path class="st1" d="M118.3,25.9c0,12.6-8.2,20.2-21.5,20.2H84.1V5.6h12.6C110.1,5.6,118.3,13.4,118.3,25.9z M96.8,41.7
			c10.6,0,16.1-5.9,16.1-15.8s-5.5-16-16.1-16h-7.3v31.9H96.8z"/>
		<path class="st1" d="M140.7,15.4h-14v11.5h12.5v3.7h-12.5v11.8h14v3.7h-18.4V11.8h18.4V15.4z"/>
		<path class="st1" d="M150,11.8v30.6h12v3.6h-16.5V11.8H150z"/>
		<path class="st1" d="M202.6,37.1h-17.7l-3.3,9h-5.6l14.7-40.3h6.1l14.6,40.3h-5.6L202.6,37.1z M193.8,12.3l-7.3,20.5h14.6
			L193.8,12.3z"/>
		<path class="st1" d="M214.8,12h4.8l12.6,28.1L244.8,12h4.8v34h-4.5V20.7l-11.3,25.4h-3.1l-11.4-25.4v25.4h-4.5V12z"/>
		<path class="st1" d="M270.8,46.4c-9.6,0-17.2-7.2-17.2-17.5c0-10.3,7.6-17.5,17.2-17.5c9.7,0,17.2,7.2,17.2,17.5
			C288,39.2,280.5,46.4,270.8,46.4z M270.8,42.5c7.2,0,12.6-5.3,12.6-13.6c0-8.4-5.4-13.6-12.6-13.6c-7.2,0-12.6,5.2-12.6,13.6
			C258.1,37.3,263.5,42.5,270.8,42.5z"/>
	</g>
</g>
</svg>
