<?xml version="1.0" encoding="utf-8"?>
<!-- Generator: Adobe Illustrator 26.0.3, SVG Export Plug-In . SVG Version: 6.00 Build 0)  -->
<svg version="1.1" id="Layer_1" xmlns="http://www.w3.org/2000/svg" xmlns:xlink="http://www.w3.org/1999/xlink" x="0px" y="0px"
	 viewBox="0 0 32 32" style="enable-background:new 0 0 32 32;" xml:space="preserve">
<style type="text/css">
	.st0{fill-rule:evenodd;clip-rule:evenodd;fill:#006E63;}
</style>
<path class="st0" d="M22,18v3.1c2.3,0.5,4,2.5,4,4.9v2.6c0,0.5-0.3,0.9-0.8,1l-2,0.4c-0.3,0.1-0.5-0.1-0.6-0.4l-0.2-1
	c-0.1-0.3,0.1-0.5,0.4-0.6l1.2-0.2V26c0-3.9-6-4.1-6,0.1v1.7l1.2,0.2c0.3,0.1,0.4,0.3,0.4,0.6l-0.2,1c-0.1,0.3-0.3,0.4-0.6,0.4
	l-2-0.3c-0.5-0.1-0.9-0.5-0.9-1V26c0-2.4,1.7-4.4,4-4.9v-2.8c-0.1,0-0.3,0.1-0.4,0.1C18.5,18.8,17.3,19,16,19s-2.5-0.2-3.6-0.6
	c-0.5-0.2-0.9-0.3-1.4-0.3v5.1c1.4,0.4,2.5,1.8,2.5,3.3c0,1.9-1.6,3.5-3.5,3.5s-3.5-1.6-3.5-3.5c0-1.6,1.1-2.9,2.5-3.3v-5
	c-4,0.7-7,4.1-7,8.3v2.8C2,30.7,3.3,32,4.8,32h22.4c1.5,0,2.8-1.3,2.8-2.8v-2.8C30,21.9,26.5,18.3,22,18z M8.5,26.5
	c0,0.8,0.7,1.5,1.5,1.5s1.5-0.7,1.5-1.5c0-0.8-0.7-1.5-1.5-1.5S8.5,25.7,8.5,26.5z M16,16c4.4,0,8-3.6,8-8s-3.6-8-8-8S8,3.6,8,8
	S11.6,16,16,16z"/>
</svg>
