<?xml version="1.0" encoding="UTF-8"?>
<svg width="100px" height="100px" viewBox="0 0 100 100" version="1.1" xmlns="http://www.w3.org/2000/svg" xmlns:xlink="http://www.w3.org/1999/xlink">
    <!-- Generator: Sketch 46.1 (44463) - http://www.bohemiancoding.com/sketch -->
    <title>Clock Icon</title>
    <desc>Created with Sketch.</desc>
    <defs>
        <polygon id="path-1" points="0 6.66666667e-05 0 100 99.9999333 100 99.9999333 6.66666667e-05"></polygon>
    </defs>
    <g id="Del-Amo-Comps" stroke="none" stroke-width="1" fill="none" fill-rule="evenodd">
        <g id="About-Page" transform="translate(-963.000000, -2939.000000)">
            <g id="Icon-Cards" transform="translate(0.000000, 2811.000000)">
                <g id="Card-Copy" transform="translate(740.000000, 80.000000)">
                    <g id="Clock-Icon" transform="translate(223.000000, 48.000000)">
                        <g id="Group-3">
                            <mask id="mask-2" fill="white">
                                <use xlink:href="#path-1"></use>
                            </mask>
                            <g id="Clip-2"></g>
                            <path d="M99.9999333,50.0000667 C99.9999333,77.6144 77.6142667,100.000067 49.9999333,100.000067 C22.3856,100.000067 -6.66666667e-05,77.6144 -6.66666667e-05,50.0000667 C-6.66666667e-05,22.3857333 22.3856,6.66666667e-05 49.9999333,6.66666667e-05 C77.6142667,6.66666667e-05 99.9999333,22.3857333 99.9999333,50.0000667" id="Fill-1" fill="#E7EEF5" mask="url(#mask-2)"></path>
                        </g>
                        <path d="M49.9999333,31.1862333 C39.6259333,31.1862333 31.1866,39.6259 31.1866,49.9999 C31.1866,60.3739 39.6259333,68.8135667 49.9999333,68.8135667 C60.3739333,68.8135667 68.8136,60.3739 68.8136,49.9999 C68.8136,39.6259 60.3739333,31.1862333 49.9999333,31.1862333 M49.9999333,71.1662333 C38.3286,71.1662333 28.8336,61.6712333 28.8336,49.9999 C28.8336,38.3285667 38.3286,28.8329 49.9999333,28.8329 C61.6716,28.8329 71.1669333,38.3285667 71.1669333,49.9999 C71.1669333,61.6712333 61.6716,71.1662333 49.9999333,71.1662333" id="Fill-4" fill="#0067D1"></path>
                        <path d="M50.4856,35.2331333 L49.4389333,35.2331333 C49.2949333,35.2331333 49.1779333,35.1168 49.1772667,34.9728 L49.1736,33.9271333 C49.1732667,33.7821333 49.2906,33.6648 49.4356,33.6648 L50.4856,33.6648 C50.6299333,33.6648 50.7469333,33.7818 50.7469333,33.9261333 L50.7469333,34.9718 C50.7469333,35.1161333 50.6299333,35.2331333 50.4856,35.2331333 M57.8562667,37.4418 L57.3142667,37.1658 C57.3052667,37.1611333 57.2966,37.1561333 57.2879333,37.1504667 L56.8659333,36.8688 C56.7456,36.7888 56.7132667,36.6264667 56.7932667,36.5061333 L57.3732667,35.6361333 C57.4532667,35.5161333 57.6159333,35.4834667 57.7359333,35.5634667 L58.1196,35.8198 C58.1289333,35.8254667 58.1382667,35.8311333 58.1479333,35.8361333 L58.5589333,36.0414667 C58.6879333,36.1058 58.7406,36.2631333 58.6756,36.3921333 L58.2089333,37.3258 C58.1442667,37.4558 57.9859333,37.5078 57.8562667,37.4418 M41.8282667,37.4194667 L41.2492667,36.5504667 C41.1689333,36.4301333 41.2019333,36.2668 41.3232667,36.1871333 L41.8319333,35.8531333 C41.8402667,35.8478 41.8492667,35.8424667 41.8582667,35.8378 L42.3122667,35.6108 C42.4416,35.5461333 42.5986,35.5988 42.6629333,35.7278 L43.1309333,36.6631333 C43.1956,36.7924667 43.1432667,36.9494667 43.0139333,37.0141333 L42.6032667,37.2194667 C42.5932667,37.2244667 42.5839333,37.2298 42.5749333,37.2358 L42.1909333,37.4914667 C42.0709333,37.5718 41.9086,37.5394667 41.8282667,37.4194667 M62.9789333,43.0014667 L62.7736,42.5904667 C62.7689333,42.5808 62.7632667,42.5714667 62.7572667,42.5621333 L62.5012667,42.1784667 C62.4212667,42.0584667 62.4536,41.8958 62.5739333,41.8158 L63.4422667,41.2368 C63.5629333,41.1564667 63.7266,41.1894667 63.8059333,41.3108 L64.1399333,41.8194667 C64.1452667,41.8278 64.1506,41.8368 64.1552667,41.8461333 L64.3819333,42.2998 C64.4469333,42.4291333 64.3946,42.5861333 64.2652667,42.6508 L63.3296,43.1184667 C63.2009333,43.1831333 63.0436,43.1304667 62.9789333,43.0014667 M36.5132667,43.1944667 L35.6432667,42.6148 C35.5229333,42.5341333 35.4909333,42.3721333 35.5709333,42.2521333 L35.8266,41.8678 C35.8326,41.8591333 35.8382667,41.8498 35.8429333,41.8398 L36.0482667,41.4288 C36.1129333,41.2994667 36.2702667,41.2474667 36.3992667,41.3118 L37.3329333,41.7788 C37.4629333,41.8438 37.5149333,42.0021333 37.4489333,42.1311333 L37.1729333,42.6731333 C37.1682667,42.6824667 37.1629333,42.6911333 37.1576,42.6994667 L36.8759333,43.1221333 C36.7959333,43.2421333 36.6332667,43.2744667 36.5132667,43.1944667 M66.0742667,50.7898 L65.0282667,50.7898 C64.8839333,50.7898 64.7669333,50.6724667 64.7669333,50.5284667 L64.7669333,49.4244667 C64.7669333,49.2804667 64.8832667,49.1634667 65.0276,49.1631333 L66.0732667,49.1594667 C66.2179333,49.1588 66.3356,49.2761333 66.3356,49.4208 L66.3356,50.5284667 C66.3356,50.6724667 66.2186,50.7898 66.0742667,50.7898 M33.6649333,50.5504667 L33.6649333,49.5004667 C33.6649333,49.3558 33.7819333,49.2391333 33.9262667,49.2391333 L34.9719333,49.2391333 C35.1166,49.2391333 35.2332667,49.3558 35.2332667,49.5004667 L35.2332667,50.5468 C35.2332667,50.6911333 35.1172667,50.8081333 34.9729333,50.8084667 L33.9272667,50.8118 C33.7826,50.8124667 33.6649333,50.6954667 33.6649333,50.5504667 M63.5866,58.7124667 L62.6526,58.2458 C62.5226,58.1808 62.4706,58.0224667 62.5366,57.8931333 L62.8126,57.3511333 C62.8172667,57.3421333 62.8226,57.3334667 62.8279333,57.3248 L63.1096,56.9024667 C63.1896,56.7821333 63.3522667,56.7501333 63.4722667,56.8301333 L64.3422667,57.4101333 C64.4626,57.4901333 64.4949333,57.6524667 64.4149333,57.7724667 L64.1589333,58.1568 C64.1529333,58.1658 64.1472667,58.1748 64.1426,58.1844667 L63.9369333,58.5958 C63.8726,58.7251333 63.7152667,58.7771333 63.5866,58.7124667 M36.1796,58.6644667 L35.8456,58.1561333 C35.8399333,58.1471333 35.8349333,58.1384667 35.8302667,58.1291333 L35.6036,57.6751333 C35.5389333,57.5461333 35.5909333,57.3891333 35.7202667,57.3244667 L36.6559333,56.8568 C36.7849333,56.7924667 36.9419333,56.8444667 37.0062667,56.9738 L37.2119333,57.3848 C37.2166,57.3944667 37.2222667,57.4041333 37.2286,57.4128 L37.4842667,57.7968 C37.5642667,57.9171333 37.5319333,58.0791333 37.4116,58.1594667 L36.5432667,58.7384667 C36.4226,58.8191333 36.2592667,58.7858 36.1796,58.6644667 M57.3122667,64.2868 L56.8446,63.3511333 C56.7802667,63.2221333 56.8326,63.0651333 56.9619333,63.0008 L57.3726,62.7954667 C57.3822667,62.7904667 57.3919333,62.7848 57.4009333,62.7788 L57.7846,62.5228 C57.9049333,62.4428 58.0672667,62.4754667 58.1472667,62.5954667 L58.7266,63.4638 C58.8069333,63.5848 58.7736,63.7478 58.6522667,63.8274667 L58.1439333,64.1614667 C58.1352667,64.1671333 58.1266,64.1721333 58.1172667,64.1768 L57.6632667,64.4038 C57.5342667,64.4681333 57.3772667,64.4161333 57.3122667,64.2868 M42.2396,64.4218 L41.8556,64.1661333 C41.8466,64.1601333 41.8372667,64.1548 41.8272667,64.1498 L41.4166,63.9444667 C41.2872667,63.8798 41.2349333,63.7228 41.2996,63.5934667 L41.7666,62.6598 C41.8312667,62.5301333 41.9896,62.4778 42.1189333,62.5441333 L42.6609333,62.8201333 C42.6702667,62.8244667 42.6789333,62.8298 42.6872667,62.8354667 L43.1096,63.1168 C43.2296,63.1971333 43.2622667,63.3594667 43.1822667,63.4794667 L42.6022667,64.3498 C42.5219333,64.4698 42.3596,64.5024667 42.2396,64.4218 M50.5362667,66.3354667 L49.4859333,66.3354667 C49.3416,66.3354667 49.2246,66.2184667 49.2246,66.0738 L49.2246,65.0281333 C49.2246,64.8838 49.3416,64.7668 49.4859333,64.7668 L50.5329333,64.7668 C50.6766,64.7668 50.7936,64.8831333 50.7942667,65.0274667 L50.7979333,66.0731333 C50.7979333,66.2178 50.6809333,66.3354667 50.5362667,66.3354667" id="Fill-6" fill="#0067D1"></path>
                        <path d="M58.9973333,52.4837667 L49.6076667,52.4837667 C49.1746667,52.4837667 48.8236667,52.1324333 48.8236667,51.6991 L48.8236667,39.6674333 C48.8236667,39.2344333 49.1746667,38.8831 49.6076667,38.8831 L50.3923333,38.8831 C50.825,38.8831 51.1763333,39.2344333 51.1763333,39.6674333 L51.1763333,49.3464333 C51.1763333,49.7797667 51.5276667,50.1304333 51.961,50.1304333 L58.9973333,50.1304333 C59.4303333,50.1304333 59.7816667,50.4817667 59.7816667,50.9151 L59.7816667,51.6991 C59.7816667,52.1324333 59.4303333,52.4837667 58.9973333,52.4837667" id="Fill-8" fill="#0067D1"></path>
                    </g>
                </g>
            </g>
        </g>
    </g>
</svg>