<?xml version="1.0" encoding="UTF-8"?>
<svg width="100px" height="100px" viewBox="0 0 100 100" version="1.1" xmlns="http://www.w3.org/2000/svg" xmlns:xlink="http://www.w3.org/1999/xlink">
    <!-- Generator: Sketch 46.2 (44496) - http://www.bohemiancoding.com/sketch -->
    <title>Cost of Treatment Icon</title>
    <desc>Created with Sketch.</desc>
    <defs>
        <polygon id="path-1" points="0 100 100 100 100 0 0 0"></polygon>
    </defs>
    <g id="Del-Amo-Hoverstates" stroke="none" stroke-width="1" fill="none" fill-rule="evenodd">
        <g id="Admissions-Page" transform="translate(-651.000000, -868.000000)">
            <g id="FAQ" transform="translate(520.000000, 831.000000)">
                <g id="Cost-of-Treatment-Icon" transform="translate(131.000000, 37.000000)">
                    <g id="Group-3" fill="#E7EEF5">
                        <path d="M99.9999333,50.0000333 C99.9999333,77.6143667 77.6142667,100.000033 49.9999333,100.000033 C22.3856,100.000033 -6.66666667e-05,77.6143667 -6.66666667e-05,50.0000333 C-6.66666667e-05,22.3857 22.3856,3.33333333e-05 49.9999333,3.33333333e-05 C77.6142667,3.33333333e-05 99.9999333,22.3857 99.9999333,50.0000333" id="Fill-1"></path>
                    </g>
                    <path d="M51.4872333,59.9447 L51.4872333,61.2440333 C52.0312333,61.1973667 52.2792333,60.9843667 52.2792333,60.6420333 L52.2792333,60.6183667 C52.2792333,60.2990333 52.1022333,60.1100333 51.4872333,59.9447 L51.4872333,59.9447 Z M50.3885667,57.6877 L50.3885667,56.4110333 C49.8095667,56.4467 49.5849,56.6833667 49.5849,56.9907 L49.5849,57.0140333 C49.5849,57.3330333 49.7502333,57.5103667 50.3885667,57.6877 L50.3885667,57.6877 Z M53.0825667,57.2270333 C52.5982333,56.8840333 52.0312333,56.6360333 51.4992333,56.5063667 L51.4992333,57.9120333 C53.3662333,58.3377 54.3235667,58.9993667 54.3235667,60.4647 L54.3235667,60.4880333 C54.3235667,61.9300333 53.2129,62.8160333 51.5349,62.9697 L51.5349,64.1277 L50.3055667,64.1277 L50.3055667,62.9577 C49.1359,62.8397 48.0015667,62.4143667 47.1152333,61.7760333 L48.1785667,60.2043667 C48.9469,60.7243667 49.6439,61.0553667 50.3765667,61.1853667 L50.3765667,59.7557 C48.4862333,59.3183667 47.5052333,58.6683667 47.5052333,57.1913667 L47.5052333,57.1677 C47.5052333,55.7850333 48.5332333,54.8280333 50.3295667,54.6983667 L50.3295667,54.0123667 L51.5582333,54.0123667 L51.5582333,54.7217 C52.5272333,54.8400333 53.3305667,55.1590333 54.0515667,55.6317 L53.0825667,57.2270333 Z" id="Fill-4" fill="#0067D1"></path>
                    <path d="M36.2343,69.4242 L36.2343,30.5758667 L59.0249667,30.5758667 L59.0249667,35.2715333 C59.0249667,36.3678667 59.9169667,37.2598667 61.0133,37.2598667 L65.7089667,37.2598667 L65.7089667,69.4242 L36.2343,69.4242 Z M64.8169667,34.8738667 L61.4109667,34.8738667 L61.4109667,31.4678667 L64.8169667,34.8738667 Z M61.5073,28.1898667 L61.0133,28.1898667 L35.8369667,28.1898667 C34.7403,28.1898667 33.8483,29.0818667 33.8483,30.1782 L33.8483,69.8218667 C33.8483,70.9182 34.7403,71.8102 35.8369667,71.8102 L66.1063,71.8102 C67.2029667,71.8102 68.0949667,70.9182 68.0949667,69.8218667 L68.0949667,35.2715333 L68.0949667,34.7772 L61.5073,28.1898667 Z" id="Fill-6" fill="#0067D1"></path>
                    <mask id="mask-2" fill="white">
                        <use xlink:href="#path-1"></use>
                    </mask>
                    <g id="Clip-9"></g>
                    <polygon id="Fill-8" fill="#0067D1" mask="url(#mask-2)" points="40.6886667 37.2596667 55.0013333 37.2596667 55.0013333 34.8736667 40.6886667 34.8736667"></polygon>
                    <polygon id="Fill-10" fill="#0067D1" mask="url(#mask-2)" points="40.6886667 42.8443333 61.3423333 42.8443333 61.3423333 40.4583333 40.6886667 40.4583333"></polygon>
                    <polygon id="Fill-11" fill="#0067D1" mask="url(#mask-2)" points="40.6886667 48.429 61.3423333 48.429 61.3423333 46.043 40.6886667 46.043"></polygon>
                </g>
            </g>
        </g>
    </g>
</svg>