<?xml version="1.0" encoding="UTF-8" standalone="no"?>
<svg width="100px" height="100px" viewBox="0 0 100 100" version="1.1" xmlns="http://www.w3.org/2000/svg" xmlns:xlink="http://www.w3.org/1999/xlink">
    <!-- Generator: Sketch 47.1 (45422) - http://www.bohemiancoding.com/sketch -->
    <title>locations-icon</title>
    <desc>Created with Sketch.</desc>
    <defs>
        <polygon id="path-1" points="0 0.0001 0 100 99.9999333 100 99.9999333 0.0001 9.0350181e-21 9.99999999e-05"></polygon>
    </defs>
    <g id="Del-Amo-Comps" stroke="none" stroke-width="1" fill="none" fill-rule="evenodd">
        <g id="Admissions-Page" transform="translate(-1041.000000, -868.000000)">
            <g id="Schedule-an-Assesment" transform="translate(912.000000, 831.000000)">
                <g id="locations-icon" transform="translate(129.000000, 37.000000)">
                    <mask id="mask-2" fill="white">
                        <use xlink:href="#path-1"></use>
                    </mask>
                    <g id="Clip-2"></g>
                    <path d="M100,50 C100,77.6143333 77.6143333,100 50,100 C22.3856667,100 0,77.6143333 0,50 C0,22.3856667 22.3856667,0 50,0 C77.6143333,0 100,22.3856667 100,50" id="Fill-1" fill="#E7EEF5" mask="url(#mask-2)"></path>
                    <g id="Page-1" mask="url(#mask-2)" stroke-linecap="round" stroke="#0067D1" stroke-width="2" stroke-linejoin="round">
                        <g transform="translate(26.000000, 27.000000)">
                            <path d="M31.1179579,44.9111386 C28.6360281,45.8198053 25.9537298,46.3153667 23.1576421,46.3153667 C10.3670456,46.3153667 -0.000164912281,35.9481561 -0.000164912281,23.1575596 C-0.000164912281,10.3702614 10.3670456,-0.000247368421 23.1576421,-0.000247368421 C35.9457649,-0.000247368421 46.3154491,10.3702614 46.3154491,23.1575596" id="Stroke-1" fill="none"></path>
                            <path d="M46.3152018,32.219407 C46.3152018,36.6679158 38.2600614,46.3152842 38.2600614,46.3152842 C38.2600614,46.3152842 30.2057456,36.6679158 30.2057456,32.219407 C30.2057456,27.7700737 33.8099035,24.1642667 38.2600614,24.1642667 C42.7085702,24.1642667 46.3152018,27.7700737 46.3152018,32.219407 Z" id="Stroke-3" fill="none"></path>
                            <path d="M41.2808421,32.219407 C41.2808421,33.8891439 39.9277368,35.2397754 38.2604737,35.2397754 C36.5915614,35.2397754 35.2401053,33.8891439 35.2401053,32.219407 C35.2401053,30.5504947 36.5915614,29.1990386 38.2604737,29.1990386 C39.9277368,29.1990386 41.2808421,30.5504947 41.2808421,32.219407 Z" id="Stroke-5" fill="#0067D1" fill-rule="evenodd"></path>
                            <polyline id="Stroke-7" fill="none" points="18.1230351 34.2330684 18.1230351 29.1991211 8.05514035 21.1439807 12.5894035 14.0956298 24.1645965 14.0956298 24.1645965 8.05489298 21.1442281 6.04131404 29.9299298 1.00654211"></polyline>
                            <polyline id="Stroke-9" fill="none" points="40.2743 7.56122807 36.7542474 14.0958772 33.2300719 14.0958772 29.7067211 17.6200526"></polyline>
                        </g>
                    </g>
                </g>
            </g>
        </g>
    </g>
</svg>