<?xml version="1.0" encoding="UTF-8"?>
<svg width="100px" height="100px" viewBox="0 0 100 100" version="1.1" xmlns="http://www.w3.org/2000/svg" xmlns:xlink="http://www.w3.org/1999/xlink">
    <!-- Generator: Sketch 46.2 (44496) - http://www.bohemiancoding.com/sketch -->
    <title>Pay Bill Icon</title>
    <desc>Created with Sketch.</desc>
    <defs>
        <polygon id="path-1" points="0 0.0001 0 100 99.9999333 100 99.9999333 0.0001 9.0350181e-21 9.99999999e-05"></polygon>
        <polygon id="path-3" points="0 100 100 100 100 0 0 0"></polygon>
    </defs>
    <g id="Del-Amo-Hoverstates" stroke="none" stroke-width="1" fill="none" fill-rule="evenodd">
        <g id="Admissions-Page" transform="translate(-1041.000000, -868.000000)">
            <g id="Schedule-an-Assesment" transform="translate(912.000000, 831.000000)">
                <g id="Pay-Bill-Icon" transform="translate(129.000000, 37.000000)">
                    <g id="Group-3">
                        <mask id="mask-2" fill="white">
                            <use xlink:href="#path-1"></use>
                        </mask>
                        <g id="Clip-2"></g>
                        <path d="M99.9999333,50.0001 C99.9999333,77.6144333 77.6142667,100.0001 49.9999333,100.0001 C22.3856,100.0001 -6.66666667e-05,77.6144333 -6.66666667e-05,50.0001 C-6.66666667e-05,22.3857667 22.3856,0.0001 49.9999333,0.0001 C77.6142667,0.0001 99.9999333,22.3857667 99.9999333,50.0001" id="Fill-1" fill="#E7EEF5" mask="url(#mask-2)"></path>
                    </g>
                    <mask id="mask-4" fill="white">
                        <use xlink:href="#path-3"></use>
                    </mask>
                    <g id="Clip-5"></g>
                    <path d="M33.6176667,60.617 L67.0863333,60.617 L67.0863333,37.9246667 L33.6176667,37.9246667 L33.6176667,60.617 Z M67.4223333,62.6336667 L33.282,62.6336667 C32.355,62.6336667 31.6013333,61.8796667 31.6013333,60.953 L31.6013333,37.5883333 C31.6013333,36.6616667 32.355,35.9076667 33.282,35.9076667 L67.4223333,35.9076667 C68.3496667,35.9076667 69.1033333,36.6616667 69.1033333,37.5883333 L69.1033333,60.953 C69.1033333,61.8796667 68.3496667,62.6336667 67.4223333,62.6336667 L67.4223333,62.6336667 Z" id="Fill-4" fill="#0067D1" mask="url(#mask-4)"></path>
                    <polygon id="Fill-6" fill="#0067D1" mask="url(#mask-4)" points="32.6093333 48.8026667 68.095 48.8026667 68.095 42.0706667 32.6093333 42.0706667"></polygon>
                    <path d="M35.3254667,68.3539333 C30.6081333,68.3539333 26.7701333,64.5156 26.7701333,59.7982667 C26.7701333,55.0809333 30.6081333,51.2429333 35.3254667,51.2429333 C40.0428,51.2429333 43.8808,55.0809333 43.8808,59.7982667 C43.8808,64.5156 40.0428,68.3539333 35.3254667,68.3539333" id="Fill-7" fill="#E7EEF5" mask="url(#mask-4)"></path>
                    <path d="M41.8638667,59.7982667 C41.8638667,63.4092667 38.9365333,66.3366 35.3255333,66.3366 C31.7142,66.3366 28.7868667,63.4092667 28.7868667,59.7982667 C28.7868667,56.1869333 31.7142,53.2596 35.3255333,53.2596 C38.9365333,53.2596 41.8638667,56.1869333 41.8638667,59.7982667" id="Fill-8" fill="#0067D1" mask="url(#mask-4)"></path>
                    <polygon id="Fill-9" fill="#E7EEF5" mask="url(#mask-4)" points="33.8977333 63.517 30.8174 60.436 32.2434 59.01 33.8977333 60.6643333 38.4074 56.155 39.8337333 57.581"></polygon>
                </g>
            </g>
        </g>
    </g>
</svg>