<?xml version="1.0" encoding="UTF-8"?>
<svg width="50px" height="50px" viewBox="0 0 50 50" version="1.1" xmlns="http://www.w3.org/2000/svg" xmlns:xlink="http://www.w3.org/1999/xlink">
    <!-- Generator: Sketch 46.1 (44463) - http://www.bohemiancoding.com/sketch -->
    <title>Schedule an Assessment</title>
    <desc>Created with Sketch.</desc>
    <defs>
        <polygon id="path-1" points="1.99839919e-15 49.9999667 1.99839919e-15 0 49.9999667 0 49.9999667 49.9999667"></polygon>
        <polygon id="path-3" points="0 51.3333333 50 51.3333333 50 1.33333333 0 1.33333333"></polygon>
    </defs>
    <g id="Del-Amo-Comps" stroke="none" stroke-width="1" fill="none" fill-rule="evenodd">
        <g id="Home-Page" transform="translate(-1066.000000, -723.000000)">
            <g id="Deck-of-Icon-Cards" transform="translate(0.000000, 650.000000)">
                <g id="Schedule-an-Assesment" transform="translate(912.000000, 48.000000)">
                    <g id="Schedule-an-Assessment" transform="translate(154.000000, 25.000000)">
                        <g id="Group-3">
                            <mask id="mask-2" fill="white">
                                <use xlink:href="#path-1"></use>
                            </mask>
                            <g id="Clip-2"></g>
                            <path d="M49.9999667,24.9999667 C49.9999667,38.8071333 38.8071333,49.9999667 24.9999667,49.9999667 C11.1928,49.9999667 -3.33333333e-05,38.8071333 -3.33333333e-05,24.9999667 C-3.33333333e-05,11.1928 11.1928,-3.33333333e-05 24.9999667,-3.33333333e-05 C38.8071333,-3.33333333e-05 49.9999667,11.1928 49.9999667,24.9999667" id="Fill-1" fill="#E7EEF5" mask="url(#mask-2)"></path>
                        </g>
                        <path d="M15.5833,36.3150667 L34.4166333,36.3150667 L34.4166333,14.5382333 L30.8663,14.5382333 L30.8663,16.6304 L19.1338,16.6304 L19.1338,14.5382333 L15.5833,14.5382333 L15.5833,36.3150667 Z M34.6324667,37.4817333 L15.3674667,37.4817333 C14.8433,37.4817333 14.4166333,37.0550667 14.4166333,36.5309 L14.4166333,14.3222333 C14.4166333,13.7979 14.8433,13.3715667 15.3674667,13.3715667 L20.3004667,13.3715667 L20.3004667,15.4637333 L29.6996333,15.4637333 L29.6996333,13.3715667 L34.6324667,13.3715667 C35.1566333,13.3715667 35.5833,13.7979 35.5833,14.3222333 L35.5833,36.5309 C35.5833,37.0550667 35.1566333,37.4817333 34.6324667,37.4817333 L34.6324667,37.4817333 Z" id="Fill-4" fill="#0067D1"></path>
                        <path d="M20.3004333,15.4636667 L29.6997667,15.4636667 L29.6997667,13.6795 L26.9817667,13.6795 L26.9611,13.1176667 C26.9221,12.0563333 26.0607667,11.2248333 24.9999333,11.2248333 C23.9401,11.2248333 23.0791,12.0563333 23.0401,13.1176667 L23.0194333,13.6795 L20.3004333,13.6795 L20.3004333,15.4636667 Z M30.8664333,16.6303333 L19.1337667,16.6303333 L19.1337667,12.5128333 L21.9449333,12.5128333 C22.2531,11.0988333 23.5019333,10.0581667 24.9999333,10.0581667 C26.4986,10.0581667 27.7481,11.0988333 28.0562667,12.5128333 L30.8664333,12.5128333 L30.8664333,16.6303333 Z" id="Fill-6" fill="#0067D1"></path>
                        <mask id="mask-4" fill="white">
                            <use xlink:href="#path-3"></use>
                        </mask>
                        <g id="Clip-9"></g>
                        <path d="M18.2655,21.3773333 L20.0386667,21.3773333 L20.0386667,19.6041667 L18.2655,19.6041667 L18.2655,21.3773333 Z M20.1218333,22.544 L18.1821667,22.544 C17.5848333,22.544 17.0988333,22.058 17.0988333,21.4606667 L17.0988333,19.521 C17.0988333,18.9236667 17.5848333,18.4376667 18.1821667,18.4376667 L20.1218333,18.4376667 C20.7191667,18.4376667 21.2051667,18.9236667 21.2051667,19.521 L21.2051667,21.4606667 C21.2051667,22.058 20.7191667,22.544 20.1218333,22.544 L20.1218333,22.544 Z" id="Fill-8" fill="#0067D1" mask="url(#mask-4)"></path>
                        <path d="M18.2655,27.2411667 L20.0386667,27.2411667 L20.0386667,25.468 L18.2655,25.468 L18.2655,27.2411667 Z M20.1218333,28.4078333 L18.1821667,28.4078333 C17.5848333,28.4078333 17.0988333,27.9218333 17.0988333,27.3245 L17.0988333,25.3846667 C17.0988333,24.7873333 17.5848333,24.3013333 18.1821667,24.3013333 L20.1218333,24.3013333 C20.7191667,24.3013333 21.2051667,24.7873333 21.2051667,25.3846667 L21.2051667,27.3245 C21.2051667,27.9218333 20.7191667,28.4078333 20.1218333,28.4078333 L20.1218333,28.4078333 Z" id="Fill-10" fill="#0067D1" mask="url(#mask-4)"></path>
                        <path d="M18.2655,33.105 L20.0386667,33.105 L20.0386667,31.3318333 L18.2655,31.3318333 L18.2655,33.105 Z M20.1218333,34.2716667 L18.1821667,34.2716667 C17.5848333,34.2716667 17.0988333,33.7856667 17.0988333,33.1883333 L17.0988333,31.2485 C17.0988333,30.6511667 17.5848333,30.1651667 18.1821667,30.1651667 L20.1218333,30.1651667 C20.7191667,30.1651667 21.2051667,30.6511667 21.2051667,31.2485 L21.2051667,33.1883333 C21.2051667,33.7856667 20.7191667,34.2716667 20.1218333,34.2716667 L20.1218333,34.2716667 Z" id="Fill-11" fill="#0067D1" mask="url(#mask-4)"></path>
                        <polygon id="Fill-13" fill="#0067D1" mask="url(#mask-4)" points="22.6876667 21.0741667 31.4511667 21.0741667 31.4511667 19.9075 22.6876667 19.9075"></polygon>
                        <polygon id="Fill-15" fill="#0067D1" mask="url(#mask-4)" points="22.6876667 26.938 31.4511667 26.938 31.4511667 25.7713333 22.6876667 25.7713333"></polygon>
                        <polygon id="Fill-17" fill="#0067D1" mask="url(#mask-4)" points="22.6876667 32.8016667 31.4511667 32.8016667 31.4511667 31.635 22.6876667 31.635"></polygon>
                        <path d="M25.5422833,12.98955 C25.5422833,13.2693833 25.31545,13.4962167 25.03545,13.4962167 C24.7556167,13.4962167 24.5287833,13.2693833 24.5287833,12.98955 C24.5287833,12.70955 24.7556167,12.4828833 25.03545,12.4828833 C25.31545,12.4828833 25.5422833,12.70955 25.5422833,12.98955" id="Fill-18" fill="#0067D1" mask="url(#mask-4)"></path>
                    </g>
                </g>
            </g>
        </g>
    </g>
</svg>