<?xml version="1.0" encoding="UTF-8"?>
<svg width="100px" height="100px" viewBox="0 0 100 100" version="1.1" xmlns="http://www.w3.org/2000/svg" xmlns:xlink="http://www.w3.org/1999/xlink">
    <!-- Generator: Sketch 46.2 (44496) - http://www.bohemiancoding.com/sketch -->
    <title>Suitcase Icon</title>
    <desc>Created with Sketch.</desc>
    <defs>
        <polygon id="path-1" points="0 0.000133333333 0 100 99.9999333 100 99.9999333 0.000133333333"></polygon>
        <polygon id="path-3" points="0 100 100 100 100 0 0 0"></polygon>
    </defs>
    <g id="Del-Amo-Hoverstates" stroke="none" stroke-width="1" fill="none" fill-rule="evenodd">
        <g id="Admissions-Page" transform="translate(-258.000000, -868.000000)">
            <g id="View-Photo-Gallery" transform="translate(128.000000, 831.000000)">
                <g id="Suitcase-Icon" transform="translate(130.000000, 37.000000)">
                    <g id="Group-3">
                        <mask id="mask-2" fill="white">
                            <use xlink:href="#path-1"></use>
                        </mask>
                        <g id="Clip-2"></g>
                        <path d="M99.9999333,50.0001333 C99.9999333,77.6144667 77.6142667,100.000133 49.9999333,100.000133 C22.3856,100.000133 -6.66666667e-05,77.6144667 -6.66666667e-05,50.0001333 C-6.66666667e-05,22.3858 22.3856,0.000133333333 49.9999333,0.000133333333 C77.6142667,0.000133333333 99.9999333,22.3858 99.9999333,50.0001333" id="Fill-1" fill="#E7EEF5" mask="url(#mask-2)"></path>
                    </g>
                    <mask id="mask-4" fill="white">
                        <use xlink:href="#path-3"></use>
                    </mask>
                    <g id="Clip-5"></g>
                    <path d="M65.873,63.8533333 L69.6243333,63.8533333 L69.6243333,35.265 L65.873,35.265 L65.873,63.8533333 Z M31.8443333,63.8533333 L35.7246667,63.8533333 L35.7246667,35.265 L31.8443333,35.265 L31.8443333,63.8533333 Z M57.1286667,35.265 L63.5963333,35.265 L63.5963333,63.8533333 L38.0013333,63.8533333 L38.0013333,35.265 L44.3403333,35.265 L57.1286667,35.265 Z M46.617,32.9883333 L54.8516667,32.9883333 L54.8516667,29.6583333 L46.617,29.6583333 L46.617,32.9883333 Z M70.004,32.9883333 L57.1286667,32.9883333 L57.1286667,29.2786667 C57.1286667,28.2326667 56.2776667,27.3816667 55.2313333,27.3816667 L46.2376667,27.3816667 C45.1913333,27.3816667 44.3403333,28.2326667 44.3403333,29.2786667 L44.3403333,32.9883333 L31.4646667,32.9883333 C30.4186667,32.9883333 29.5676667,33.8396667 29.5676667,34.8856667 L29.5676667,64.233 C29.5676667,65.279 30.4186667,66.13 31.4646667,66.13 L70.004,66.13 C71.05,66.13 71.901,65.279 71.901,64.233 L71.901,34.8856667 C71.901,33.8396667 71.05,32.9883333 70.004,32.9883333 L70.004,32.9883333 Z" id="Fill-4" fill="#0067D1" mask="url(#mask-4)"></path>
                </g>
            </g>
        </g>
    </g>
</svg>